[
  {
    "time": "24/05/02",
    "title": "测试32",
    "filelink": "https://pan.quark.cn/s/ed80eff5f8ef",
    "url": "https://pic.netbian.com/uploads/allimg/231201/012612-1701365172e897.jpg"
  },
  {
    "time": "24/05/02",
    "title": "测试31",
    "filelink": "https://pan.quark.cn/s/ed80eff5f8ef",
    "url": "https://pic.netbian.com/uploads/allimg/231219/012739-170292045970ba.jpg"
  },
  {
    "time": "24/05/02",
    "title": "测试30",
    "filelink": "https://pan.quark.cn/s/ed80eff5f8ef",
    "url": "https://pic.netbian.com/uploads/allimg/231226/011806-1703524686cd3e.jpg"
  },
  {
    "time": "24/05/02",
    "title": "测试29",
    "filelink": "https://pan.quark.cn/s/ed80eff5f8ef",
    "url": "https://pic.netbian.com/uploads/allimg/231231/165400-1704012840d221.jpg"
  },
  {
    "time": "24/05/02",
    "title": "测试28",
    "filelink": "https://pan.quark.cn/s/ed80eff5f8ef",
    "url": "https://pic.netbian.com/uploads/allimg/240110/003909-1704818349afc7.jpg"
  },
  {
    "time": "24/05/02",
    "title": "测试27",
    "filelink": "https://pan.quark.cn/s/ed80eff5f8ef",
    "url": "https://pic.netbian.com/uploads/allimg/240121/190431-1705835071b690.jpg"
  },
  {
    "time": "24/05/02",
    "title": "测试26",
    "filelink": "https://pan.quark.cn/s/ed80eff5f8ef",
    "url": "https://pic.netbian.com/uploads/allimg/240121/190612-1705835172f56f.jpg"
  },
  {
    "time": "24/05/02",
    "title": "测试25",
    "filelink": "https://pan.quark.cn/s/ed80eff5f8ef",
    "url": "https://pic.netbian.com/uploads/allimg/240121/194456-170583749643cc.jpg"
  },
  {
    "time": "24/05/02",
    "title": "测试24",
    "filelink": "https://pan.quark.cn/s/ed80eff5f8ef",
    "url": "https://pic.netbian.com/uploads/allimg/240122/003249-170585476928c7.jpg"
  },
  {
    "time": "24/05/02",
    "title": "测试23",
    "filelink": "https://pan.quark.cn/s/ed80eff5f8ef",
    "url": "https://pic.netbian.com/uploads/allimg/240128/005101-17063742618783.jpg"
  },
  {
    "time": "24/05/02",
    "title": "测试22",
    "filelink": "https://pan.quark.cn/s/ed80eff5f8ef",
    "url": "https://pic.netbian.com/uploads/allimg/240202/194812-17068744927fb6.jpg"
  },
  {
    "time": "24/05/02",
    "title": "测试21",
    "filelink": "https://pan.quark.cn/s/ed80eff5f8ef",
    "url": "https://pic.netbian.com/uploads/allimg/240204/003957-1706978397893b.jpg"
  },
  {
    "time": "24/05/02",
    "title": "测试20",
    "filelink": "https://pan.quark.cn/s/ed80eff5f8ef",
    "url": "https://pic.netbian.com/uploads/allimg/240215/145732-1707980252690d.jpg"
  },
  {
    "time": "24/05/02",
    "title": "测试19",
    "filelink": "https://pan.quark.cn/s/ed80eff5f8ef",
    "url": "https://pic.netbian.com/uploads/allimg/240215/152313-17079817938226.jpg"
  },
  {
    "time": "24/05/02",
    "title": "测试18",
    "filelink": "https://pan.quark.cn/s/ed80eff5f8ef",
    "url": "https://pic.netbian.com/uploads/allimg/240218/124303-1708231383ebc5.jpg"
  },
  {
    "time": "24/05/02",
    "title": "测试17",
    "filelink": "https://pan.quark.cn/s/ed80eff5f8ef",
    "url": "https://pic.netbian.com/uploads/allimg/240221/090840-1708477720e9a1.jpg"
  },
  {
    "time": "24/05/02",
    "title": "测试16",
    "filelink": "https://pan.quark.cn/s/ed80eff5f8ef",
    "url": "https://pic.netbian.com/uploads/allimg/240226/205642-1708952202535e.jpg"
  },
  {
    "time": "24/05/02",
    "title": "测试15",
    "filelink": "https://pan.quark.cn/s/ed80eff5f8ef",
    "url": "https://pic.netbian.com/uploads/allimg/240301/201121-1709295081ae61.jpg"
  },
  {
    "time": "24/05/02",
    "title": "测试14",
    "filelink": "https://pan.quark.cn/s/ed80eff5f8ef",
    "url": "https://pic.netbian.com/uploads/allimg/240329/002127-171164288743a5.jpg"
  },
  {
    "time": "24/05/02",
    "title": "测试13",
    "filelink": "https://pan.quark.cn/s/ed80eff5f8ef",
    "url": "https://pic.netbian.com/uploads/allimg/240316/004019-1710520819e767.jpg"
  },
  {
    "time": "24/05/02",
    "title": "测试12",
    "filelink": "https://pan.quark.cn/s/ed80eff5f8ef",
    "url": "https://pic.netbian.com/uploads/allimg/240318/003257-1710693177b5e9.jpg"
  },
  {
    "time": "24/05/02",
    "title": "测试11",
    "filelink": "https://pan.quark.cn/s/ed80eff5f8ef",
    "url": "https://pic.netbian.com/uploads/allimg/240325/203528-1711370128b67a.jpg"
  },
  {
    "time": "24/05/02",
    "title": "测试10",
    "filelink": "https://pan.quark.cn/s/ed80eff5f8ef",
    "url": "https://pic.netbian.com/uploads/allimg/240329/002127-171164288743a5.jpg"
  },
  {
    "time": "24/05/02",
    "title": "测试9",
    "filelink": "https://pan.quark.cn/s/ed80eff5f8ef",
    "url": "https://pic.netbian.com/uploads/allimg/240401/005851-1711904331b4fb.jpg"
  },
  {
    "time": "24/05/02",
    "title": "测试8",
    "filelink": "https://pan.quark.cn/s/ed80eff5f8ef",
    "url": "https://pic.netbian.com/uploads/allimg/240405/235011-17123322119de6.jpg"
  },
  {
    "time": "24/05/02",
    "title": "测试8",
    "filelink": "https://pan.quark.cn/s/ed80eff5f8ef",
    "url": "https://pic.netbian.com/uploads/allimg/240411/000438-17127650780f4b.jpg"
  },
  {
    "time": "24/05/02",
    "title": "测试7",
    "filelink": "https://pan.quark.cn/s/ed80eff5f8ef",
    "url": "https://pic.netbian.com/uploads/allimg/240418/001309-171337038951ee.jpg"
  },
  {
    "time": "24/05/02",
    "title": "测试6",
    "filelink": "https://pan.quark.cn/s/ed80eff5f8ef",
    "url": "https://pic.netbian.com/uploads/allimg/240422/010730-17137192501a1f.jpg"
  },
  {
    "time": "24/05/02",
    "title": "测试5",
    "filelink": "https://pan.quark.cn/s/ed80eff5f8ef",
    "url": "https://pic.netbian.com/uploads/allimg/240425/163038-1714033838bbaa.jpg"
  },
  {
    "time": "24/05/02",
    "title": "测试4",
    "filelink": "https://pan.quark.cn/s/ed80eff5f8ef",
    "url": "https://pic.netbian.com/uploads/allimg/240428/000216-1714233736ce22.jpg"
  },
  {
    "time": "24/05/02",
    "title": "测试3",
    "filelink": "https://pan.quark.cn/s/ed80eff5f8ef",
    "url": "https://pic.netbian.com/uploads/allimg/240503/005951-1714669191ec9b.jpg"
  },
  {
    "time": "24/05/02",
    "title": "星露谷物语最新美化版+原版mod版合集丨支持安卓+ios+win",
    "filelink": "https://pan.quark.cn/s/ed80eff5f8ef",
    "url": "https://pic.netbian.com/uploads/allimg/240429/225620-1714402580ab97.jpg"
  },
  {
    "time": "24/05/01",
    "title": "植物大战僵尸杂交版丨这些植物好像有点不对劲？",
    "filelink": "https://pan.quark.cn/s/ed80eff5r4r",
    "url": "https://pic.netbian.com/uploads/allimg/240429/214557-171439835773a9.jpg"
  },
  {
    "time": "24/04/29",
    "title": "上班如何优雅的摸鱼？用这几款小说软件保证你能安安心心！",
    "filelink": "https://pan.quark.cn/s/ed80eff5r4r",
    "url": "https://pic.netbian.com/uploads/allimg/240416/002020-17131980205383.jpg"
  },
  {
    "time": "24/04/28",
    "title": "植物大战僵尸E版，独特支线带你玩出虐心新花样！！",
    "filelink": "https://pan.quark.cn/s/ed80eff5r4r",
    "url": "https://pic.netbian.com/uploads/allimg/240312/012812-17101780921c39.jpg"
  },
  {
    "time": "24/04/27",
    "title": "植物大战僵尸随机版，主播同款，就是这个高血压的感觉！",
    "filelink": "https://pan.quark.cn/s/ed80eff5r4r",
    "url": "https://pic.netbian.com/uploads/allimg/240410/223535-17127597352d7a.jpg"
  },
  {
    "time": "24/04/26",
    "title": "这个宝藏导航网站，我不允许你们还没有用过",
    "filelink": "https://pan.quark.cn/s/ed80eff5r4r",
    "url": "https://pic.netbian.com/uploads/allimg/240416/002230-17131981501e6a.jpg"
  }
]